…
``` r
# add the type of wheel to Mr_Trash
Mr_Trash <- Mr_Trash %>% 
  mutate(type_of_wheel = "Mr.", year = as.numeric(year)) %>% 
  select(type_of_wheel, everything())
# combine Mr_Trash and Professor_Trash
full_join(Mr_Trash, Professor_Trash)
```

    ## Joining, by = c("type_of_wheel", "dumpster", "month", "year", "date",
    ## "weight_tons", "volume_cubic_yards", "plastic_bottles", "polystyrene",
    ## "cigarette_butts", "glass_bottles", "grocery_bags", "chip_bags",
    ## "homes_powered")

    ## # A tibble: 641 × 15
    ##    type_of_wheel dumps…¹ month  year date                weigh…² volum…³ plast…⁴
    ##    <chr>           <dbl> <chr> <dbl> <dttm>                <dbl>   <dbl>   <dbl>
    ##  1 Mr.                 1 May    2014 2014-05-16 00:00:00    4.31      18    1450
    ##  2 Mr.                 2 May    2014 2014-05-16 00:00:00    2.74      13    1120
    ##  3 Mr.                 3 May    2014 2014-05-16 00:00:00    3.45      15    2450
    ##  4 Mr.                 4 May    2014 2014-05-17 00:00:00    3.1       15    2380
    ##  5 Mr.                 5 May    2014 2014-05-17 00:00:00    4.06      18     980
    ##  6 Mr.                 6 May    2014 2014-05-20 00:00:00    2.71      13    1430
    ##  7 Mr.                 7 May    2014 2014-05-21 00:00:00    1.91       8     910
    ##  8 Mr.                 8 May    2014 2014-05-28 00:00:00    3.7       16    3580
    ##  9 Mr.                 9 June   2014 2014-06-05 00:00:00    2.52      14    2400
    ## 10 Mr.                10 June   2014 2014-06-11 00:00:00    3.76      18    1340
    ## # … with 631 more rows, 7 more variables: polystyrene <dbl>,
    ## #   cigarette_butts <dbl>, glass_bottles <dbl>, grocery_bags <dbl>,
    ## #   chip_bags <dbl>, sports_balls <int>, homes_powered <dbl>, and abbreviated
    ## #   variable names ¹​dumpster, ²​weight_tons, ³​volume_cubic_yards,
    ## #   ⁴​plastic_bottles
…
